{
    "Apple": {
    "description": "Apples, fuji, with skin, raw",
    "lastUpdated": "10/30/2020",
    "portion": "100 g",
    "foodNutrients": {
        "Water": "83.6 g",
        "Energy (Atwater General Factors)": "65 kcal",
        "Protein": "0.15 g",
        "Total lipid (fat)": "0.16 g",
        "Carbohydrates:": "",
        "by difference": "15.6 g",
        "Fiber, total dietary": "2.1 g",
        "Sugars, Total NLEA": "13.3 g"
    }
    },
    "Tomato": {
    "description": "Tomato, roma",
    "lastUpdated": "10/28/2021",
    "portion": "100 g",
    "foodNutrients": {
        "Water": "97.7 g",
        "Energy (Atwater General Factors)": "22 kcal",
        "Protein": "0.7 g",
        "Total lipid (fat)": "0.42 g",
        "Carbohydrates:": "",
        "by difference": "3.84 g",
        "Fiber, total dietary": "1 g",
        "Sugars, Total NLEA": "0 g"
    }
    },
    "Pear": {
    "description": "Pears, raw, bartlett",
    "lastUpdated": "12/16/2019",
    "portion": "100 g",
    "foodNutrients": {
        "Water": "84.1 g",
        "Energy (Atwater General Factors)": "63 kcal",
        "Protein": "0.38 g",
        "Total lipid (fat)": "0.16 g",
        "Carbohydrates:": "",
        "by difference": "15.1 g",
        "Fiber, total dietary": "3.1 g",
        "Sugars, Total NLEA": "13.3 g"
    }
    },
    "Green Apple": {
    "description": "Apples, raw, golden delicious, with skin",
    "lastUpdated": "4/1/2019",
    "portion": "100 g",
    "foodNutrients": {
        "Water": "85.8 g",
        "Energy (Atwater General Factors)": "57 kcal",
        "Protein": "0.28 g",
        "Total lipid (fat)": "0.15 g",
        "Carbohydrates:": "",
        "by difference": "13.6 g",
        "Fiber, total dietary": "2.4 g",
        "Sugars, Total NLEA": "10 g"
    }
    },
    "Lemon": {
    "description": "Lemon, raw ",
    "lastUpdated": "10/30/2020",
    "portion": "100 g",
    "foodNutrients": {
        "Water": "89 g",
        "Energy (Atwater General Factors)": "29 kcal",
        "Protein": "1.1 g",
        "Total lipid (fat)": "0.3 g",
        "Carbohydrates:": "",
        "by difference": "9.32 g",
        "Fiber, total dietary": "2.8 g",
        "Sugars, Total NLEA": "2.5 g"
    }
    },
    "Tangerine": {
    "description": "Tangerine, raw",
    "lastUpdated": "10/30/2018",
    "portion": "100 g",
    "foodNutrients": {
        "Water": "85.2 g",
        "Energy (Atwater General Factors)": "53 kcal",
        "Protein": "0.81 g",
        "Total lipid (fat)": "0.31 g",
        "Carbohydrates:": "",
        "by difference": "13.3 g",
        "Fiber, total dietary": "1.8 g",
        "Sugars, Total NLEA": "10.6 g"
    }
    }
}
